Life Expectancy, GDP per Capita, Primary School Enrollment, Mortality Rate and HIV Prevalence · Porfolio Website for Yian (Sarah) Jiang
…
tidy_worldbank <-inner_join(tidy_worldbank_1, countries,by=c("country","iso2c","iso3c")) %>% 
  select(c("country","region","Year","GDP_Per_Capita","School_Enrollment","Mortality_Rate","Fertility_Rate"))

tidy_HIV$Year <- as.numeric(tidy_HIV$Year)
tidy_life_expectancy$Year <- as.numeric(tidy_life_expectancy$Year)

#Join different sheets into 1 table
joined_table1 <- inner_join(tidy_HIV,tidy_life_expectancy,by=c("Year","country"))
joined_table <- inner_join(joined_table1,tidy_worldbank,by=c("Year","country"))
joined_table <- joined_table[c(1,5,2,3,4,6,7,8,9)]

joined_table

## # A tibble: 4,719 x 9
##    country region  Year HIV_Prevalence Life_Expectancy GDP_Per_Capita
##    <chr>   <chr>  <dbl>          <dbl>           <dbl>          <dbl>
##  1 Afghan~ South~  1979             NA            44.4             NA
##  2 Afghan~ South~  1980             NA            44.1             NA
##  3 Afghan~ South~  1981             NA            44.9             NA
##  4 Afghan~ South~  1982             NA            44.6             NA
##  5 Afghan~ South~  1983             NA            42.8             NA
##  6 Afghan~ South~  1984             NA            40.5             NA
##  7 Afghan~ South~  1985             NA            42.4             NA
##  8 Afghan~ South~  1986             NA            43.4             NA
##  9 Afghan~ South~  1987             NA            45.5             NA
## 10 Afghan~ South~  1988             NA            47.9             NA
## # ... with 4,709 more rows, and 3 more variables: School_Enrollment <dbl>,
## #   Mortality_Rate <dbl>, Fertility_Rate <dbl>
…
#Select the 5 least improvement countries in terms of mortality rate
Least_Improvement <- mortality_change2 %>% 
  group_by(region) %>% 
  arrange(desc(region,change)) %>% 
  select(c(country,region,Change_In_Mortality_Rate)) %>% 
  top_n(5,Change_In_Mortality_Rate)

#Run the table
Least_Improvement

## # A tibble: 32 x 3
## # Groups:   region [7]
##    country                  region             Change_In_Mortality_Rate
##    <chr>                    <chr>                                 <dbl>
##  1 Botswana                 Sub-Saharan Africa                    -40.5
##  2 Central African Republic Sub-Saharan Africa                    -44.3
##  3 Lesotho                  Sub-Saharan Africa                    -33.7
##  4 Mauritius                Sub-Saharan Africa                    -29.2
##  5 Zimbabwe                 Sub-Saharan Africa                    -28.6
##  6 Bangladesh               South Asia                           -157. 
##  7 India                    South Asia                           -118. 
##  8 Maldives                 South Asia                           -146. 
##  9 Pakistan                 South Asia                            -81.8
## 10 Sri Lanka                South Asia                            -38.6
## # ... with 22 more rows

#Select the 5 most improvement countries in terms of mortality rate
Most_Improvement <- mortality_change2 %>% 
  group_by(region) %>% 
  arrange(region,Change_In_Mortality_Rate) %>% 
  select(c(country,region,Change_In_Mortality_Rate)) %>% 
  top_n(-5,Change_In_Mortality_Rate)

#Run the table
Most_Improvement

## # A tibble: 32 x 3
## # Groups:   region [7]
##    country          region                Change_In_Mortality_Rate
##    <chr>            <chr>                                    <dbl>
##  1 Cambodia         East Asia & Pacific                     -166. 
##  2 Mongolia         East Asia & Pacific                     -138. 
##  3 Indonesia        East Asia & Pacific                      -91.7
##  4 Myanmar          East Asia & Pacific                      -82.2
##  5 Papua New Guinea East Asia & Pacific                      -52.5
##  6 Turkey           Europe & Central Asia                   -117. 
##  7 Uzbekistan       Europe & Central Asia                    -94.8
##  8 Tajikistan       Europe & Central Asia                    -88.1
##  9 Kyrgyz Republic  Europe & Central Asia                    -74.9
## 10 Armenia          Europe & Central Asia                    -58.6
## # ... with 22 more rows
…
