…
Answer:The variable type for “country” column is character. The variable type for “beer_servings”, “spirit_servings” and “wine_servings” is integer. The variable type for “total_litres_of_pure_alcohol” is double.
There is no missing value in any of the columns.

Here, we make a plot that shows the top 25 beer consuming countries first.

#Select the top 25 beer consuming countries
beer_plot <- drinks %>%
  arrange(desc(beer_servings)) %>%
  select(country, beer_servings) %>% 
  head(25)

#Run the table
beer_plot

## # A tibble: 25 x 2
##    country        beer_servings
##    <chr>                  <int>
##  1 Namibia                  376
##  2 Czech Republic           361
##  3 Gabon                    347
##  4 Germany                  346
##  5 Lithuania                343
##  6 Poland                   343
##  7 Venezuela                333
##  8 Ireland                  313
##  9 Palau                    306
## 10 Romania                  297
## # ... with 15 more rows
…
Next, we make a plot that shows the top 25 wine consuming countries

#Select the top 25 wine consuming countries
wine_plot <- drinks %>%
  arrange(desc(wine_servings)) %>%
  select(country, wine_servings) %>% 
  head(25)

#Run the table
wine_plot

## # A tibble: 25 x 2
##    country           wine_servings
##    <chr>                     <int>
##  1 France                      370
##  2 Portugal                    339
##  3 Andorra                     312
##  4 Switzerland                 280
##  5 Denmark                     278
##  6 Slovenia                    276
##  7 Luxembourg                  271
##  8 Croatia                     254
##  9 Italy                       237
## 10 Equatorial Guinea           233
## # ... with 15 more rows
…
Finally, we make a plot that shows the top 25 spirit consuming countries

#Select the top 25 spirit consuming countries
spirit_plot <- drinks %>%
  arrange(desc(spirit_servings)) %>%
  select(country, spirit_servings) %>% 
  head(25)

#Run the table
spirit_plot

## # A tibble: 25 x 2
##    country            spirit_servings
##    <chr>                        <int>
##  1 Grenada                        438
##  2 Belarus                        373
##  3 Haiti                          326
##  4 Russian Federation             326
##  5 St. Lucia                      315
##  6 Guyana                         302
##  7 Slovakia                       293
##  8 Dominica                       286
##  9 Thailand                       258
## 10 Cook Islands                   254
## # ... with 15 more rows
…
